{
  "linuxServer": [
    {
      "name": "Status",
      "type": "availability"
    },
    {
      "name": "Current Load",
      "type": "capacity"
    },
    {
      "name": "Current Users",
      "type": "capacity"
    },
    {
      "name": "Root Partition",
      "type": "capacity"
    },
    {
      "name": "Swap usage",
      "type": "capacity"
    },
    {
      "name": "Total Processes",
      "type": "capacity"
    },
    {
      "name": "SSH",
      "type": "availability"
    },
    {
      "name": "HTTP",
      "type": "availability"
    }
  ],
  "windowsServer": [
    {
      "name": "Status",
      "type": "availability"
    },
    {
      "name": "Current Load",
      "type": "capacity"
    },
    {
      "name": "Current Users",
      "type": "capacity"
    },
    {
      "name": "Root Partition",
      "type": "capacity"
    },
    {
      "name": "Swap usage",
      "type": "capacity"
    },
    {
      "name": "Total Processes",
      "type": "capacity"
    },
    {
      "name": "SSH",
      "type": "availability"
    },
    {
      "name": "HTTP",
      "type": "availability"
    }
  ],
  "network": [
    {
      "name": "Status",
      "type": "availability"
    },
    {
      "name": "Current Load",
      "type": "capacity"
    },
    {
      "name": "Current Users",
      "type": "capacity"
    },
    {
      "name": "Root Partition",
      "type": "capacity"
    },
    {
      "name": "Swap usage",
      "type": "capacity"
    },
    {
      "name": "Total Processes",
      "type": "capacity"
    },
    {
      "name": "SSH",
      "type": "availability"
    },
    {
      "name": "HTTP",
      "type": "availability"
    }
  ],
 "synthetic-transactions": [
   {
     "name": "Exchange 2016 - Send and receive@SAO",
     "type": "synthetic-transaction"
   },
   {
     "name": "Exchange 2016 - Send and receive@OSA",
     "type": "capacity"
   },
   {
     "name": "Root Partition",
     "type": "capacity"
   },
   {
     "name": "Swap usage",
     "type": "capacity"
   },
   {
     "name": "Total Processes",
     "type": "capacity"
   },
   {
     "name": "SSH",
     "type": "availability"
   },
   {
     "name": "HTTP",
     "type": "availability"
   }
 ]
}
